…
```r
pantheria
```

```
## # A tibble: 5,416 x 55
##    MSW05_Order MSW05_Family MSW05_Genus MSW05_Species MSW05_Binomial `1-1_ActivityCy… `5-1_AdultBodyM… `8-1_AdultForea…
##    <chr>       <chr>        <chr>       <chr>         <chr>                     <dbl>            <dbl>            <dbl>
##  1 Artiodacty… Camelidae    Camelus     dromedarius   Camelus drome…                3          492714.             -999
##  2 Carnivora   Canidae      Canis       adustus       Canis adustus                 1           10392.             -999
##  3 Carnivora   Canidae      Canis       aureus        Canis aureus                  2            9659.             -999
##  4 Carnivora   Canidae      Canis       latrans       Canis latrans                 2           11989.             -999
##  5 Carnivora   Canidae      Canis       lupus         Canis lupus                   2           31757.             -999
##  6 Artiodacty… Bovidae      Bos         frontalis     Bos frontalis                 2          800143.             -999
##  7 Artiodacty… Bovidae      Bos         grunniens     Bos grunniens              -999          500000              -999
##  8 Artiodacty… Bovidae      Bos         javanicus     Bos javanicus                 2          635974.             -999
##  9 Primates    Pitheciidae  Callicebus  cupreus       Callicebus cu…                3            1117.             -999
## 10 Primates    Pitheciidae  Callicebus  discolor      Callicebus di…             -999            -999              -999
## # … with 5,406 more rows, and 47 more variables: `13-1_AdultHeadBodyLen_mm` <dbl>, `2-1_AgeatEyeOpening_d` <dbl>,
## #   `3-1_AgeatFirstBirth_d` <dbl>, `18-1_BasalMetRate_mLO2hr` <dbl>, `5-2_BasalMetRateMass_g` <dbl>, `6-1_DietBreadth` <dbl>,
## #   `7-1_DispersalAge_d` <dbl>, `9-1_GestationLen_d` <dbl>, `12-1_HabitatBreadth` <dbl>, `22-1_HomeRange_km2` <dbl>,
## #   `22-2_HomeRange_Indiv_km2` <dbl>, `14-1_InterbirthInterval_d` <dbl>, `15-1_LitterSize` <dbl>, `16-1_LittersPerYear` <dbl>,
## #   `17-1_MaxLongevity_m` <dbl>, `5-3_NeonateBodyMass_g` <dbl>, `13-2_NeonateHeadBodyLen_mm` <dbl>,
## #   `21-1_PopulationDensity_n/km2` <dbl>, `10-1_PopulationGrpSize` <dbl>, `23-1_SexualMaturityAge_d` <dbl>,
## #   `10-2_SocialGrpSize` <dbl>, `24-1_TeatNumber` <dbl>, `12-2_Terrestriality` <dbl>, `6-2_TrophicLevel` <dbl>,
## #   `25-1_WeaningAge_d` <dbl>, `5-4_WeaningBodyMass_g` <dbl>, `13-3_WeaningHeadBodyLen_mm` <dbl>, References <chr>,
## #   `5-5_AdultBodyMass_g_EXT` <dbl>, `16-2_LittersPerYear_EXT` <dbl>, `5-6_NeonateBodyMass_g_EXT` <dbl>,
…
```
## # A tibble: 5,416 x 8
##    order        family      longevity homerange adult_bodymass litter_size dispersal_age gestation
##    <fct>        <fct>           <dbl>     <dbl>          <dbl>       <dbl>         <dbl>     <dbl>
##  1 Artiodactyla Camelidae        480      NA           492714.           1           NA      387. 
##  2 Carnivora    Canidae          137       1.01         10392.          NA          330.      65  
##  3 Carnivora    Canidae          192       3.13          9659.          NA           NA       61.2
##  4 Carnivora    Canidae          262      19.9          11989.          NA          255       61.7
##  5 Carnivora    Canidae          354      43.1          31757.           2          180       63.5
##  6 Artiodactyla Bovidae          314.     NA           800143.           1           NA      274. 
##  7 Artiodactyla Bovidae          267      NA           500000            1           NA      274. 
##  8 Artiodactyla Bovidae          319.     NA           635974.           1           NA      297. 
##  9 Primates     Pitheciidae       NA      NA             1117.          NA           NA      129. 
## 10 Primates     Pitheciidae       NA      NA               NA           NA           NA       NA  
## # … with 5,406 more rows
```
…
```r
dat %>%
  filter(!is.na(homerange)) %>% #permet d'enlever toutes les lignes avec NA sur les homerange, c'est mieux
  group_by(family) %>%
  summarise(moy=mean(homerange), sd=sd(homerange), n=n()) #n donne le nbr d'obs dans le groupe homerange(+ efficace)
```

```
## `summarise()` ungrouping output (override with `.groups` argument)
```

```
## # A tibble: 93 x 4
##    family             moy        sd     n
##    <fct>            <dbl>     <dbl> <int>
##  1 Camelidae    0.13       NA           1
##  2 Canidae     49.6       176.         21
##  3 Bovidae     44.6       159.         24
##  4 Pitheciidae  0.8         1.27        7
##  5 Didelphidae  0.0704      0.160      10
##  6 Dasypodidae  1.38        2.14        4
##  7 Muridae      0.00336     0.00839    35
##  8 Spalacidae   0.0000732  NA           1
##  9 Cricetidae   0.00305     0.00572    62
## 10 Erinaceidae  0.0255      0.0306      4
## # … with 83 more rows
```
…
